Methods of Data Collection and Production – Guan Chen
…
#Quanteda01
library(quanteda)
library(quanteda.textmodels)
library(quanteda.textplots)
library(readr)
library(ggplot2)

# Twitter data about President Biden and Xi summit in Novemeber 2021
# Do some background search/study on the event
# 
summit <- read_csv("https://raw.githubusercontent.com/datageneration/datamethods/master/textanalytics/summit_11162021.csv")
print(summit)

# A tibble: 14,520 × 90
   user_id status_id created_at          screen_name     text             source
     <dbl>     <dbl> <dttm>              <chr>           <chr>            <chr> 
 1 1.38e18   1.46e18 2021-11-16 20:10:23 DSJ78992721     "Breaking News:… Twitt…
 2 2.60e 8   1.46e18 2021-11-16 20:10:17 bradhooperarch  "https://t.co/r… Twitt…
 3 3.00e 9   1.46e18 2021-11-16 20:10:10 scarecrow1113   "[Recap] Biden … Twitt…
 4 3.00e 9   1.46e18 2021-11-15 19:24:04 scarecrow1113   "U.S. President… Twitt…
 5 1.36e18   1.46e18 2021-11-16 06:22:29 Internl_Leaks   "#BREAKING Bide… Twitt…
 6 1.36e18   1.46e18 2021-11-16 20:09:36 Internl_Leaks   "#BREAKING Bide… Twitt…
 7 1.05e18   1.46e18 2021-11-16 20:09:12 Lordsbondserver "No Breakthroug… Twitt…
 8 9.55e 8   1.46e18 2021-11-16 20:08:54 KevinCappskj    "President Bide… Twitt…
 9 1.26e18   1.46e18 2021-11-16 01:00:05 SayNoToSino     "Joe Biden and … Twitt…
10 1.26e18   1.46e18 2021-11-16 20:08:24 SayNoToSino     "Why did Joe Bi… Twitt…
# ℹ 14,510 more rows
# ℹ 84 more variables: display_text_width <dbl>, reply_to_status_id <dbl>,
#   reply_to_user_id <dbl>, reply_to_screen_name <chr>, is_quote <lgl>,
#   is_retweet <lgl>, favorite_count <dbl>, retweet_count <dbl>,
#   quote_count <lgl>, reply_count <lgl>, hashtags <chr>, symbols <chr>,
#   urls_url <chr>, urls_t.co <chr>, urls_expanded_url <chr>, media_url <chr>,
#   media_t.co <chr>, media_expanded_url <chr>, media_type <chr>, …
…
